<?xml version="1.0" encoding="UTF-8" standalone="no"?>
<!-- Created with Inkscape (http://www.inkscape.org/) -->
<svg
   xmlns:dc="http://purl.org/dc/elements/1.1/"
   xmlns:cc="http://creativecommons.org/ns#"
   xmlns:rdf="http://www.w3.org/1999/02/22-rdf-syntax-ns#"
   xmlns:svg="http://www.w3.org/2000/svg"
   xmlns="http://www.w3.org/2000/svg"
   xmlns:xlink="http://www.w3.org/1999/xlink"
   xmlns:sodipodi="http://sodipodi.sourceforge.net/DTD/sodipodi-0.dtd"
   xmlns:inkscape="http://www.inkscape.org/namespaces/inkscape"
   id="svg2"
   sodipodi:version="0.32"
   inkscape:version="0.46"
   width="33.751896"
   height="34.571712"
   version="1.0"
   sodipodi:docname="ldr.svg"
   inkscape:output_extension="org.inkscape.output.svg.inkscape">
  <sodipodi:namedview
     inkscape:window-height="972"
     inkscape:window-width="1248"
     inkscape:pageshadow="2"
     inkscape:pageopacity="0.0"
     guidetolerance="10.0"
     gridtolerance="10.0"
     objecttolerance="10.0"
     borderopacity="1.0"
     bordercolor="#666666"
     pagecolor="#ffffff"
     id="base"
     showgrid="false"
     inkscape:zoom="21.406955"
     inkscape:cx="16.875948"
     inkscape:cy="17.310967"
     inkscape:window-x="1280"
     inkscape:window-y="0"
     inkscape:current-layer="svg2" />
  <metadata
     id="metadata7">
    <rdf:RDF>
      <cc:Work
         rdf:about="">
        <dc:format>image/svg+xml</dc:format>
        <dc:type
           rdf:resource="http://purl.org/dc/dcmitype/StillImage" />
      </cc:Work>
    </rdf:RDF>
  </metadata>
  <defs
     id="defs5">
    <linearGradient
       id="linearGradient3363">
      <stop
         id="stop3365"
         offset="0"
         style="stop-color:#ffffff;stop-opacity:0.62251657;" />
      <stop
         id="stop3367"
         offset="1"
         style="stop-color:#ffffff;stop-opacity:0;" />
    </linearGradient>
    <linearGradient
       id="linearGradient3345">
      <stop
         style="stop-color:#ffffff;stop-opacity:0.74172187;"
         offset="0"
         id="stop3347" />
      <stop
         style="stop-color:#ffffff;stop-opacity:0;"
         offset="1"
         id="stop3349" />
    </linearGradient>
    <linearGradient
       id="linearGradient3231">
      <stop
         id="stop3233"
         offset="0"
         style="stop-color:#000000;stop-opacity:0.19205298;" />
      <stop
         style="stop-color:#000000;stop-opacity:0.09411765;"
         offset="0.26709616"
         id="stop3235" />
      <stop
         id="stop3237"
         offset="1"
         style="stop-color:#000000;stop-opacity:0;" />
    </linearGradient>
    <linearGradient
       id="linearGradient3531">
      <stop
         style="stop-color:#000000;stop-opacity:0.19215687;"
         offset="0"
         id="stop3533" />
      <stop
         id="stop3229"
         offset="0.32954547"
         style="stop-color:#000000;stop-opacity:0.3245033;" />
      <stop
         style="stop-color:#000000;stop-opacity:0;"
         offset="1"
         id="stop3535" />
    </linearGradient>
    <linearGradient
       id="linearGradient3511">
      <stop
         style="stop-color:#000000;stop-opacity:1;"
         offset="0"
         id="stop3513" />
      <stop
         style="stop-color:#000000;stop-opacity:0;"
         offset="1"
         id="stop3515" />
    </linearGradient>
    <linearGradient
       id="linearGradient3501">
      <stop
         style="stop-color:#2e7eb1;stop-opacity:1;"
         offset="0"
         id="stop3503" />
      <stop
         style="stop-color:#1a4b69;stop-opacity:1;"
         offset="1"
         id="stop3505" />
    </linearGradient>
    <inkscape:perspective
       id="perspective9"
       inkscape:persp3d-origin="372.04724 : 350.78739 : 1"
       inkscape:vp_z="744.09448 : 526.18109 : 1"
       inkscape:vp_y="0 : 1000 : 0"
       inkscape:vp_x="0 : 526.18109 : 1"
       sodipodi:type="inkscape:persp3d" />
    <linearGradient
       inkscape:collect="always"
       xlink:href="#linearGradient3511"
       id="linearGradient3517"
       x1="28.326012"
       y1="25.249983"
       x2="145.424"
       y2="25.249983"
       gradientUnits="userSpaceOnUse"
       spreadMethod="pad" />
    <linearGradient
       inkscape:collect="always"
       xlink:href="#linearGradient3511"
       id="linearGradient3605"
       gradientUnits="userSpaceOnUse"
       spreadMethod="pad"
       x1="28.326012"
       y1="25.249983"
       x2="145.424"
       y2="25.249983" />
    <inkscape:perspective
       id="perspective2433"
       inkscape:persp3d-origin="372.04724 : 350.78739 : 1"
       inkscape:vp_z="744.09448 : 526.18109 : 1"
       inkscape:vp_y="0 : 1000 : 0"
       inkscape:vp_x="0 : 526.18109 : 1"
       sodipodi:type="inkscape:persp3d" />
    <linearGradient
       inkscape:collect="always"
       xlink:href="#linearGradient3511"
       id="linearGradient2462"
       gradientUnits="userSpaceOnUse"
       spreadMethod="pad"
       x1="28.326012"
       y1="25.249983"
       x2="145.424"
       y2="25.249983" />
    <linearGradient
       inkscape:collect="always"
       xlink:href="#linearGradient3511"
       id="linearGradient2494"
       gradientUnits="userSpaceOnUse"
       spreadMethod="pad"
       x1="28.326012"
       y1="25.249983"
       x2="145.424"
       y2="25.249983" />
    <linearGradient
       inkscape:collect="always"
       xlink:href="#linearGradient3511"
       id="linearGradient2519"
       gradientUnits="userSpaceOnUse"
       spreadMethod="pad"
       x1="28.326012"
       y1="25.249983"
       x2="145.424"
       y2="25.249983" />
    <linearGradient
       inkscape:collect="always"
       xlink:href="#linearGradient3511"
       id="linearGradient2521"
       gradientUnits="userSpaceOnUse"
       spreadMethod="pad"
       x1="28.326012"
       y1="25.249983"
       x2="145.424"
       y2="25.249983" />
    <linearGradient
       inkscape:collect="always"
       xlink:href="#linearGradient3511"
       id="linearGradient2523"
       gradientUnits="userSpaceOnUse"
       spreadMethod="pad"
       x1="28.326012"
       y1="25.249983"
       x2="145.424"
       y2="25.249983" />
    <linearGradient
       inkscape:collect="always"
       xlink:href="#linearGradient3511"
       id="linearGradient2525"
       gradientUnits="userSpaceOnUse"
       spreadMethod="pad"
       x1="28.326012"
       y1="25.249983"
       x2="145.424"
       y2="25.249983" />
    <linearGradient
       inkscape:collect="always"
       xlink:href="#linearGradient3531"
       id="linearGradient2544"
       gradientUnits="userSpaceOnUse"
       gradientTransform="matrix(0.2246503,0,0,0.1668113,-28.64733,0.959412)"
       x1="186.51808"
       y1="165.31131"
       x2="174.4514"
       y2="165.31131" />
    <linearGradient
       inkscape:collect="always"
       xlink:href="#linearGradient3531"
       id="linearGradient2547"
       gradientUnits="userSpaceOnUse"
       gradientTransform="matrix(0.2202496,0,0,0.2074794,-13.367463,-2.9989793)"
       x1="186.51808"
       y1="165.31131"
       x2="174.4514"
       y2="165.31131" />
    <linearGradient
       inkscape:collect="always"
       xlink:href="#linearGradient3531"
       id="linearGradient3340"
       gradientUnits="userSpaceOnUse"
       gradientTransform="matrix(0.2261326,0,0,0.1487148,-14.429247,3.0796855)"
       x1="186.51808"
       y1="165.31131"
       x2="174.4514"
       y2="165.31131" />
    <linearGradient
       inkscape:collect="always"
       xlink:href="#linearGradient3531"
       id="linearGradient3342"
       gradientUnits="userSpaceOnUse"
       gradientTransform="matrix(0.2312437,0,0,0.1100437,-29.837346,6.8271407)"
       x1="186.51808"
       y1="165.31131"
       x2="174.4514"
       y2="165.31131" />
    <linearGradient
       inkscape:collect="always"
       xlink:href="#linearGradient3511"
       id="linearGradient3344"
       gradientUnits="userSpaceOnUse"
       spreadMethod="pad"
       x1="28.326012"
       y1="25.249983"
       x2="145.424"
       y2="25.249983" />
    <linearGradient
       inkscape:collect="always"
       xlink:href="#linearGradient3511"
       id="linearGradient3346"
       gradientUnits="userSpaceOnUse"
       spreadMethod="pad"
       x1="28.326012"
       y1="25.249983"
       x2="145.424"
       y2="25.249983" />
    <linearGradient
       inkscape:collect="always"
       xlink:href="#linearGradient3511"
       id="linearGradient3348"
       gradientUnits="userSpaceOnUse"
       spreadMethod="pad"
       x1="28.326012"
       y1="25.249983"
       x2="145.424"
       y2="25.249983" />
    <linearGradient
       inkscape:collect="always"
       xlink:href="#linearGradient3511"
       id="linearGradient3350"
       gradientUnits="userSpaceOnUse"
       spreadMethod="pad"
       x1="28.326012"
       y1="25.249983"
       x2="145.424"
       y2="25.249983" />
    <linearGradient
       inkscape:collect="always"
       xlink:href="#linearGradient3511"
       id="linearGradient3382"
       gradientUnits="userSpaceOnUse"
       spreadMethod="pad"
       x1="28.326012"
       y1="25.249983"
       x2="145.424"
       y2="25.249983" />
    <linearGradient
       inkscape:collect="always"
       xlink:href="#linearGradient3511"
       id="linearGradient2465"
       gradientUnits="userSpaceOnUse"
       spreadMethod="pad"
       x1="28.326012"
       y1="25.249983"
       x2="145.424"
       y2="25.249983" />
    <linearGradient
       inkscape:collect="always"
       xlink:href="#linearGradient3531"
       id="linearGradient2484"
       gradientUnits="userSpaceOnUse"
       gradientTransform="matrix(0.2937873,0,0,0.1484509,-45.771797,5.5389416)"
       x1="186.51808"
       y1="165.31131"
       x2="174.4514"
       y2="165.31131" />
    <linearGradient
       inkscape:collect="always"
       xlink:href="#linearGradient3531"
       id="linearGradient2487"
       gradientUnits="userSpaceOnUse"
       gradientTransform="matrix(0.2872939,0,0,0.2006189,-26.196323,0.4835591)"
       x1="186.51808"
       y1="165.31131"
       x2="174.4514"
       y2="165.31131" />
    <linearGradient
       inkscape:collect="always"
       xlink:href="#linearGradient3511"
       id="linearGradient3298"
       gradientUnits="userSpaceOnUse"
       spreadMethod="pad"
       x1="28.326012"
       y1="25.249983"
       x2="145.424"
       y2="25.249983"
       gradientTransform="translate(0.527357,0)" />
    <linearGradient
       inkscape:collect="always"
       xlink:href="#linearGradient3501"
       id="linearGradient3333"
       x1="7.126626"
       y1="17.141006"
       x2="40.845375"
       y2="17.141006"
       gradientUnits="userSpaceOnUse"
       gradientTransform="translate(-7.1266262,-0.817726)" />
    <radialGradient
       inkscape:collect="always"
       xlink:href="#linearGradient3345"
       id="radialGradient3351"
       cx="27.717533"
       cy="5.0794983"
       fx="27.717533"
       fy="5.0794983"
       r="15.614172"
       gradientTransform="matrix(0.7209035,-1.0680282e-2,5.4672595e-3,0.3690321,7.8711769,5.8362646)"
       gradientUnits="userSpaceOnUse" />
    <radialGradient
       inkscape:collect="always"
       xlink:href="#linearGradient3345"
       id="radialGradient3355"
       gradientUnits="userSpaceOnUse"
       gradientTransform="matrix(0.9991751,-1.1691602e-2,7.5776431e-3,0.4039759,-2.4273984,2.1541381)"
       cx="7.6326351"
       cy="25.026747"
       fx="7.6326351"
       fy="25.026747"
       r="15.614172" />
    <radialGradient
       inkscape:collect="always"
       xlink:href="#linearGradient3363"
       id="radialGradient3361"
       gradientUnits="userSpaceOnUse"
       gradientTransform="matrix(-0.9991751,1.1691602e-2,-7.5776431e-3,-0.4039759,36.310374,14.914874)"
       cx="7.7068858"
       cy="13.863877"
       fx="7.7068858"
       fy="13.863877"
       r="15.614172" />
  </defs>
  <rect
     rx="2.1730764"
     style="fill:url(#linearGradient2487);fill-opacity:1;fill-rule:nonzero;stroke:#000000;stroke-width:0.237;stroke-linejoin:round;stroke-miterlimit:4;stroke-dasharray:none;stroke-dashoffset:0;stroke-opacity:0.41106716999999998"
     id="rect3539"
     width="2.9338729"
     height="13.289009"
     x="24.237539"
     y="21.113981"
     ry="0.6664167" />
  <rect
     rx="1.7471304"
     ry="0.88618195"
     y="20.916586"
     x="5.7036142"
     height="9.8334026"
     width="3.000186"
     id="rect3529"
     style="fill:url(#linearGradient2484);fill-opacity:1;fill-rule:nonzero;stroke:#000000;stroke-width:0.193;stroke-linejoin:round;stroke-miterlimit:4;stroke-dasharray:none;stroke-dashoffset:0;stroke-opacity:0.41106716999999998" />
  <path
     id="path2404"
     d="M 15.969867,16.090639 C 10.494884,15.907388 5.6701378,14.379994 3.1218818,12.02329 C 0.6601801,9.746635 0.7353789,6.9981569 3.3211558,4.7397184 C 5.1027268,3.1836821 8.0012928,1.9606991 11.402639,1.3299266 C 14.84452,0.69163551 18.847917,0.68488781 22.281554,1.3115902 C 27.605928,2.283389 31.428482,4.5944539 32.295693,7.366012 C 32.474687,7.938067 32.475818,9.0010639 32.298042,9.571816 C 31.271359,12.867975 26.006336,15.488059 19.389313,15.995709 C 18.432726,16.069097 16.734693,16.116236 15.969867,16.090639 L 15.969867,16.090639 z"
     style="fill:#ffefa5;fill-opacity:1;fill-rule:nonzero;stroke:#00172c;stroke-width:0.05200138;stroke-miterlimit:4;stroke-dasharray:none;stroke-dashoffset:0;stroke-opacity:1" />
  <path
     transform="matrix(0.2719507,-3.3979846e-2,3.8846535e-2,0.2378809,-29.083148,-5.3270516)"
     d="M 135.27758,57.923599 A 5.0953889,3.6966546 0 1 1 125.0868,57.923599 A 5.0953889,3.6966546 0 1 1 135.27758,57.923599 z"
     sodipodi:ry="3.6966546"
     sodipodi:rx="5.0953889"
     sodipodi:cy="57.923599"
     sodipodi:cx="130.18219"
     id="path2434"
     style="fill:#b3b3b3;fill-opacity:1;fill-rule:nonzero;stroke:#00172c;stroke-width:0.40000001;stroke-miterlimit:4;stroke-dasharray:none;stroke-dashoffset:0;stroke-opacity:1"
     sodipodi:type="arc" />
  <path
     sodipodi:type="arc"
     style="fill:#b3b3b3;fill-opacity:1;fill-rule:nonzero;stroke:#00172c;stroke-width:0.39992881;stroke-miterlimit:4;stroke-dasharray:none;stroke-dashoffset:0;stroke-opacity:1"
     id="path2436"
     sodipodi:cx="130.18219"
     sodipodi:cy="57.923599"
     sodipodi:rx="5.0953889"
     sodipodi:ry="3.6966546"
     d="M 135.27758,57.923599 A 5.0953889,3.6966546 0 1 1 125.0868,57.923599 A 5.0953889,3.6966546 0 1 1 135.27758,57.923599 z"
     transform="matrix(0.2719378,-3.3993528e-2,3.8844678e-2,0.2379769,-12.748187,4.0202047)" />
  <path
     sodipodi:nodetypes="cssssssssssssssssssssssssssssssssscccsssssssc"
     id="path2388"
     d="M 10.229847,12.121039 C 6.0159448,10.035912 4.7356228,9.698255 4.7356228,10.672056 C 4.7356228,10.987007 5.2744818,11.389715 6.4525688,11.955186 C 7.3968868,12.40845 8.1695138,12.877726 8.1695138,12.998019 C 8.1695138,13.469049 7.1031848,13.171441 5.2748248,12.190122 C 2.9682688,10.952147 2.6761454,10.31394 4.1371088,9.704537 C 5.5177448,9.1286373 6.4347298,9.369817 10.641912,11.415388 C 14.284423,13.186409 15.361763,13.473259 15.52659,12.715973 C 15.584697,12.449 14.390596,11.715705 11.527296,10.260013 C 9.2821238,9.1185761 7.2075338,7.9549908 6.9170988,7.6742677 C 6.3930938,7.1677922 6.3949438,7.1594204 7.1572348,6.5858686 C 8.5362518,5.5482937 9.2626058,5.7419843 15.422871,8.7899983 C 20.989925,11.544499 22.198564,11.933523 22.394371,11.033907 C 22.453413,10.762635 20.971418,9.907428 17.235624,8.0569721 C 14.352747,6.6289967 11.880018,5.2742993 11.740663,5.046534 C 11.470756,4.6053892 12.104969,3.9340146 13.300193,3.3956309 C 14.122867,3.0250583 15.278149,3.4875789 21.289309,6.5940961 C 23.989984,7.9897856 26.392612,9.1317129 26.628475,9.1317129 C 27.160714,9.1317129 27.778523,8.5128511 27.557941,8.2006569 C 27.468087,8.0734853 25.61084,7.0826579 23.430731,5.9988178 C 21.250621,4.9149782 19.191623,3.7718949 18.85518,3.4586331 C 18.269733,2.9135243 18.264149,2.8690717 18.72518,2.4234629 C 19.474442,1.6992561 21.104339,1.5628236 22.509859,2.1066612 C 24.571027,2.9041908 26.11995,3.8589268 25.802767,4.1363719 C 25.604422,4.3098657 24.795476,4.0640197 23.165775,3.3349657 C 21.268354,2.486146 20.721333,2.3346927 20.329818,2.5497757 C 20.063024,2.6963421 19.84474,2.951436 19.84474,3.1166511 C 19.84474,3.2818663 21.699038,4.3212526 23.965408,5.4263984 C 26.231777,6.5315449 28.3243,7.7065755 28.615458,8.0375802 C 29.119604,8.6107139 29.122022,8.6614644 28.666179,9.1020582 C 27.9906,9.755047 26.527497,9.942028 25.378755,9.522186 C 24.855904,9.331093 22.322473,8.0837315 19.748908,6.750274 C 16.127805,4.8740454 14.844065,4.3258031 14.071864,4.3258031 C 12.140121,4.3258031 13.059001,5.0608962 18.132998,7.5746653 C 20.814508,8.9031439 23.28559,10.235883 23.624297,10.536311 L 24.240119,11.08254 L 23.469344,11.669048 C 22.737174,12.22618 22.134258,12.370246 20.981385,12.263544 C 20.699993,12.237501 17.956105,10.972471 14.883854,9.452366 C 11.811602,7.9322588 9.0763718,6.7258599 8.8055628,6.77148 C 8.5347498,6.8171002 8.2757398,7.0244607 8.2299868,7.2322828 C 8.1719298,7.4959759 9.3801518,8.2371722 12.22893,9.685481 C 16.81452,12.016778 17.507857,12.51945 16.949514,13.107926 C 16.518898,13.561784 15.209362,14.181545 14.707544,14.168977 C 14.511178,14.164059 12.496213,13.242487 10.229847,12.121039 z"
     style="fill:#905d42;stroke:#000000;stroke-width:0.1027711;stroke-miterlimit:4;stroke-dasharray:none;stroke-opacity:1" />
  <path
     style="opacity:1;fill:url(#linearGradient3333);fill-opacity:1;fill-rule:nonzero;stroke:none;stroke-width:0.40000001;stroke-miterlimit:4;stroke-dashoffset:0;stroke-opacity:1"
     d="M 0,8.5889052 L 0,15.463905 C 0,20.217244 7.5389228,24.057655 16.84375,24.057655 C 26.148576,24.057655 33.718752,20.217243 33.71875,15.463905 L 33.71875,8.6110023 C 33.71875,13.364341 24.832544,16.940093 16.865847,16.845837 C 8.8109928,16.751584 1.3523746,14.371529 0,8.5889052 z"
     id="path3491"
     sodipodi:nodetypes="ccscccc" />
  <path
     id="path2408"
     d="M 15.520036,16.903322 C 9.9504168,16.642726 5.0601168,15.075901 2.2860045,12.663216 C 1.1967861,11.715909 0.5565957,10.796586 0.2200393,9.696477 C 0.0248214,9.058359 0.0115183,8.0055659 0.1907249,7.3768389 C 0.9722049,4.635149 4.1589378,2.334868 8.9878188,1.0268265 C 11.453792,0.35884751 13.873136,0.063697299 16.89235,0.062506929 C 18.532303,0.061860069 19.413152,0.10636524 20.679939,0.25387661 C 26.674511,0.95191761 31.495256,3.2777442 33.1117,6.2517304 C 33.557934,7.0727279 33.689513,7.5750681 33.689396,8.4572649 C 33.689277,9.385924 33.539904,9.951195 33.085856,10.741194 C 32.163189,12.346541 30.399302,13.743361 27.925756,14.827478 C 25.981936,15.679425 24.032581,16.21891 21.6161,16.573672 C 19.836488,16.834938 17.156212,16.979877 15.520036,16.903322 L 15.520036,16.903322 z M 19.856548,15.905045 C 22.66901,15.619245 24.884657,15.0842 27.020028,14.175169 C 29.713757,13.028449 31.476242,11.49479 32.125141,9.732865 C 32.309539,9.232165 32.372517,8.3191408 32.263491,7.7271246 C 31.924933,5.8888061 30.014726,4.054019 27.143971,2.8097373 C 25.210873,1.971868 22.971826,1.3923533 20.597597,1.1153883 C 13.824634,0.32529001 6.9379558,1.7936536 3.5316538,4.7541543 C 2.8355543,5.3591514 2.4789993,5.7757924 2.1267682,6.3957774 C 1.807054,6.958524 1.6643401,7.3474759 1.5732257,7.9043742 C 1.0014795,11.399007 5.5525268,14.671846 12.418606,15.70372 C 13.118741,15.808944 14.081897,15.909341 14.998556,15.99346 C 15.915215,16.07758 19.146826,15.977168 19.856548,15.905045 C 19.856548,15.905045 19.856548,15.905045 19.856548,15.905045 z"
     style="fill:#338cc5;fill-opacity:1;fill-rule:nonzero;stroke:#00172c;stroke-width:0.05133909;stroke-miterlimit:4;stroke-dasharray:none;stroke-dashoffset:0;stroke-opacity:1"
     sodipodi:nodetypes="cssssssssssscccssssssssszcc" />
  <path
     inkscape:transform-center-y="1.2999452"
     inkscape:transform-center-x="4.4178878"
     id="path3353"
     d="M 15.955061,15.656698 C 10.767311,15.485389 6.1956838,14.05752 3.7811158,11.854384 C 1.448561,9.726079 1.519814,7.1566946 3.9699358,5.0454196 C 5.6580398,3.5907767 8.4045408,2.447485 11.627443,1.8578146 C 14.888753,1.2611154 18.682122,1.2548074 21.93562,1.840673 C 26.980664,2.749148 30.602678,4.9096207 31.424393,7.5005796 C 31.593997,8.0353589 31.595068,9.0290894 31.426619,9.56265 C 30.453798,12.644028 25.464991,15.093383 19.195116,15.567954 C 18.288713,15.636561 16.679763,15.680628 15.955061,15.656698 L 15.955061,15.656698 z"
     style="fill:url(#radialGradient3355);fill-opacity:1;fill-rule:nonzero;stroke:none;stroke-width:0.04894196;stroke-miterlimit:4;stroke-dasharray:none;stroke-dashoffset:0;stroke-opacity:1" />
  <path
     style="fill:url(#radialGradient3361);fill-opacity:1;fill-rule:nonzero;stroke:none;stroke-width:0.04894196000000000;stroke-miterlimit:4;stroke-dasharray:none;stroke-dashoffset:0;stroke-opacity:1"
     d="M 17.927914,1.412314 C 23.115664,1.583623 27.687291,3.011492 30.101859,5.214628 C 32.434414,7.342933 32.363161,9.912317 29.913039,12.023592 C 28.224935,13.478235 25.478434,14.621527 22.255532,15.211197 C 18.994222,15.807897 15.200853,15.814205 11.947355,15.228339 C 6.9023108,14.319864 3.2802968,12.159391 2.4585822,9.568432 C 2.2889782,9.0336531 2.2879072,8.0399226 2.4563562,7.506362 C 3.4291768,4.424984 8.4179838,1.975629 14.687859,1.501058 C 15.594262,1.432451 17.203212,1.388384 17.927914,1.412314 L 17.927914,1.412314 z"
     id="path3359"
     inkscape:transform-center-x="-4.4178877"
     inkscape:transform-center-y="-1.299945" />
</svg>
