<?xml version="1.0" encoding="UTF-8" standalone="no"?>
<!-- Created with Inkscape (http://www.inkscape.org/) -->

<svg
   xmlns:dc="http://purl.org/dc/elements/1.1/"
   xmlns:cc="http://creativecommons.org/ns#"
   xmlns:rdf="http://www.w3.org/1999/02/22-rdf-syntax-ns#"
   xmlns:svg="http://www.w3.org/2000/svg"
   xmlns="http://www.w3.org/2000/svg"
   xmlns:sodipodi="http://sodipodi.sourceforge.net/DTD/sodipodi-0.dtd"
   xmlns:inkscape="http://www.inkscape.org/namespaces/inkscape"
   width="152.27164"
   height="146.53671"
   id="svg2"
   sodipodi:version="0.32"
   inkscape:version="0.47 r22583"
   sodipodi:docname="T568A.svg"
   version="1.0">
  <defs
     id="defs4">
    <inkscape:perspective
       sodipodi:type="inkscape:persp3d"
       inkscape:vp_x="0 : 54.110001 : 1"
       inkscape:vp_y="0 : 1000 : 0"
       inkscape:vp_z="280.06 : 54.110001 : 1"
       inkscape:persp3d-origin="140.03 : 36.073334 : 1"
       id="perspective46" />
    <inkscape:perspective
       id="perspective2860"
       inkscape:persp3d-origin="0.5 : 0.33333333 : 1"
       inkscape:vp_z="1 : 0.5 : 1"
       inkscape:vp_y="0 : 1000 : 0"
       inkscape:vp_x="0 : 0.5 : 1"
       sodipodi:type="inkscape:persp3d" />
    <inkscape:perspective
       id="perspective3739"
       inkscape:persp3d-origin="0.5 : 0.33333333 : 1"
       inkscape:vp_z="1 : 0.5 : 1"
       inkscape:vp_y="0 : 1000 : 0"
       inkscape:vp_x="0 : 0.5 : 1"
       sodipodi:type="inkscape:persp3d" />
    <inkscape:perspective
       id="perspective3764"
       inkscape:persp3d-origin="0.5 : 0.33333333 : 1"
       inkscape:vp_z="1 : 0.5 : 1"
       inkscape:vp_y="0 : 1000 : 0"
       inkscape:vp_x="0 : 0.5 : 1"
       sodipodi:type="inkscape:persp3d" />
  </defs>
  <sodipodi:namedview
     id="base"
     pagecolor="#ffffff"
     bordercolor="#666666"
     borderopacity="1.0"
     inkscape:pageopacity="1"
     inkscape:pageshadow="2"
     inkscape:zoom="1.4142136"
     inkscape:cx="-20.763579"
     inkscape:cy="168.08775"
     inkscape:document-units="px"
     inkscape:current-layer="layer1"
     inkscape:window-width="1680"
     inkscape:window-height="1003"
     inkscape:window-x="0"
     inkscape:window-y="0"
     showgrid="false"
     showguides="true"
     inkscape:guide-bbox="true"
     inkscape:window-maximized="1" />
  <metadata
     id="metadata7">
    <rdf:RDF>
      <cc:Work
         rdf:about="">
        <dc:format>image/svg+xml</dc:format>
        <dc:type
           rdf:resource="http://purl.org/dc/dcmitype/StillImage" />
      </cc:Work>
    </rdf:RDF>
  </metadata>
  <g
     inkscape:label="Capa 1"
     inkscape:groupmode="layer"
     id="layer1"
     transform="translate(84.221619,-182.54937)">
    <rect
       style="fill:#ffffff;stroke:#000000;stroke-width:1;stroke-linecap:butt;stroke-linejoin:miter;stroke-miterlimit:4;stroke-opacity:1;stroke-dasharray:none"
       id="rect2894"
       width="151.27164"
       height="112.85122"
       x="-83.721619"
       y="200.96127" />
    <path
       style="fill:#000000;stroke:#000000;stroke-width:1;stroke-linecap:butt;stroke-linejoin:miter;stroke-miterlimit:4;stroke-opacity:1;stroke-dasharray:none"
       d="m -73.231427,232.95181 c 0,0 20.6419,0 31.4995,0 l 0,-14.39467 14.20527,0 0,-13.32139 38.89087,0 0,13.32139 14.26842,0 0,14.39467 c 11.27544,0 31.42721,0 31.42721,0 l 0,66.00556 -130.29127,0 0,-66.00556 z"
       id="rect2896"
       sodipodi:nodetypes="ccccccccccccc" />
    <rect
       style="fill:#ffcc00;stroke:#000000;stroke-width:1;stroke-linecap:butt;stroke-linejoin:miter;stroke-miterlimit:4;stroke-opacity:1;stroke-dasharray:none"
       id="rect2900"
       width="4.9341326"
       height="28.326981"
       x="-61.981426"
       y="280.09464" />
    <rect
       y="280.09464"
       x="-47.593662"
       height="28.326981"
       width="4.9341326"
       id="rect2902"
       style="fill:#ffcc00;stroke:#000000;stroke-width:1;stroke-linecap:butt;stroke-linejoin:miter;stroke-miterlimit:4;stroke-opacity:1;stroke-dasharray:none" />
    <rect
       style="fill:#ffcc00;stroke:#000000;stroke-width:1;stroke-linecap:butt;stroke-linejoin:miter;stroke-miterlimit:4;stroke-opacity:1;stroke-dasharray:none"
       id="rect2904"
       width="4.9341326"
       height="28.326981"
       x="-33.205906"
       y="280.09464" />
    <rect
       y="280.09464"
       x="-18.81815"
       height="28.326981"
       width="4.9341326"
       id="rect2906"
       style="fill:#ffcc00;stroke:#000000;stroke-width:1;stroke-linecap:butt;stroke-linejoin:miter;stroke-miterlimit:4;stroke-opacity:1;stroke-dasharray:none" />
    <rect
       style="fill:#ffcc00;stroke:#000000;stroke-width:1;stroke-linecap:butt;stroke-linejoin:miter;stroke-miterlimit:4;stroke-opacity:1;stroke-dasharray:none"
       id="rect2908"
       width="4.9341326"
       height="28.326981"
       x="-4.4303942"
       y="280.09464" />
    <rect
       y="280.09464"
       x="9.9573774"
       height="28.326981"
       width="4.9341326"
       id="rect2910"
       style="fill:#ffcc00;stroke:#000000;stroke-width:1;stroke-linecap:butt;stroke-linejoin:miter;stroke-miterlimit:4;stroke-opacity:1;stroke-dasharray:none" />
    <rect
       style="fill:#ffcc00;stroke:#000000;stroke-width:1;stroke-linecap:butt;stroke-linejoin:miter;stroke-miterlimit:4;stroke-opacity:1;stroke-dasharray:none"
       id="rect2912"
       width="4.9341326"
       height="28.326981"
       x="24.345135"
       y="280.09464" />
    <rect
       y="280.09464"
       x="38.732891"
       height="28.326981"
       width="4.9341326"
       id="rect2914"
       style="fill:#ffcc00;stroke:#000000;stroke-width:1;stroke-linecap:butt;stroke-linejoin:miter;stroke-miterlimit:4;stroke-opacity:1;stroke-dasharray:none" />
    <rect
       y="207.02217"
       x="31.435757"
       height="20.16972"
       width="31.06349"
       id="rect2917"
       style="fill:#ffdd55;stroke:#000000;stroke-width:1;stroke-linecap:butt;stroke-linejoin:miter;stroke-miterlimit:4;stroke-opacity:1;stroke-dasharray:none" />
    <rect
       style="fill:#ff7f2a;stroke:#000000;stroke-width:1;stroke-linecap:butt;stroke-linejoin:miter;stroke-miterlimit:4;stroke-opacity:1;stroke-dasharray:none"
       id="rect3697"
       width="31.06349"
       height="20.16972"
       x="-78.165802"
       y="207.02217" />
    <text
       xml:space="preserve"
       style="font-size:11.08577442px;font-style:normal;font-weight:normal;fill:#000000;fill-opacity:1;stroke:none;font-family:Bitstream Vera Sans"
       x="38.626358"
       y="328.93451"
       id="text3699"><tspan
         sodipodi:role="line"
         id="tspan3701"
         x="38.626358"
         y="328.93451">1</tspan></text>
    <text
       id="text3703"
       y="329.0076"
       x="24.261639"
       style="font-size:11.08577442px;font-style:normal;font-weight:normal;fill:#000000;fill-opacity:1;stroke:none;font-family:Bitstream Vera Sans"
       xml:space="preserve"><tspan
         y="329.0076"
         x="24.261639"
         id="tspan3705"
         sodipodi:role="line">2</tspan></text>
    <text
       xml:space="preserve"
       style="font-size:11.08577442px;font-style:normal;font-weight:normal;fill:#000000;fill-opacity:1;stroke:none;font-family:Bitstream Vera Sans"
       x="9.5234241"
       y="328.92911"
       id="text3707"><tspan
         sodipodi:role="line"
         id="tspan3709"
         x="9.5234241"
         y="328.92911">3</tspan></text>
    <text
       id="text3711"
       y="328.93451"
       x="-5.0686398"
       style="font-size:11.08577442px;font-style:normal;font-weight:normal;fill:#000000;fill-opacity:1;stroke:none;font-family:Bitstream Vera Sans"
       xml:space="preserve"><tspan
         y="328.93451"
         x="-5.0686398"
         id="tspan3713"
         sodipodi:role="line">4</tspan></text>
    <text
       xml:space="preserve"
       style="font-size:11.08577442px;font-style:normal;font-weight:normal;fill:#000000;fill-opacity:1;stroke:none;font-family:Bitstream Vera Sans"
       x="-19.66341"
       y="328.85602"
       id="text3715"><tspan
         sodipodi:role="line"
         id="tspan3717"
         x="-19.66341"
         y="328.85602">5</tspan></text>
    <text
       id="text3719"
       y="328.92911"
       x="-34.369148"
       style="font-size:11.08577442px;font-style:normal;font-weight:normal;fill:#000000;fill-opacity:1;stroke:none;font-family:Bitstream Vera Sans"
       xml:space="preserve"><tspan
         y="328.92911"
         x="-34.369148"
         id="tspan3721"
         sodipodi:role="line">6</tspan></text>
    <text
       xml:space="preserve"
       style="font-size:11.08577442px;font-style:normal;font-weight:normal;fill:#000000;fill-opacity:1;stroke:none;font-family:Bitstream Vera Sans"
       x="-48.923317"
       y="328.93451"
       id="text3723"><tspan
         sodipodi:role="line"
         id="tspan3725"
         x="-48.923317"
         y="328.93451">7</tspan></text>
    <text
       id="text3727"
       y="328.92911"
       x="-63.550568"
       style="font-size:11.08577442px;font-style:normal;font-weight:normal;fill:#000000;fill-opacity:1;stroke:none;font-family:Bitstream Vera Sans"
       xml:space="preserve"><tspan
         y="328.92911"
         x="-63.550568"
         id="tspan3729"
         sodipodi:role="line">8</tspan></text>
    <text
       id="text3727-4"
       y="192.75537"
       x="-73.637726"
       style="font-size:11.08577442px;font-style:normal;font-weight:normal;fill:#000000;fill-opacity:1;stroke:none;font-family:Bitstream Vera Sans"
       xml:space="preserve"><tspan
         y="192.75537"
         x="-73.637726"
         id="tspan3729-9"
         sodipodi:role="line"
         style="font-size:14px;font-style:normal;font-variant:normal;font-weight:normal;font-stretch:normal;font-family:FreeSans;-inkscape-font-specification:FreeSans">link</tspan></text>
    <text
       id="text3727-4-5"
       y="192.75537"
       x="33.442844"
       style="font-size:11.08577442px;font-style:normal;font-weight:normal;fill:#000000;fill-opacity:1;stroke:none;font-family:Bitstream Vera Sans"
       xml:space="preserve"><tspan
         y="192.75537"
         x="33.442844"
         id="tspan3729-9-1"
         sodipodi:role="line"
         style="font-size:14px;font-style:normal;font-variant:normal;font-weight:normal;font-stretch:normal;font-family:FreeSans;-inkscape-font-specification:FreeSans">data</tspan></text>
  </g>
</svg>
