<?xml version="1.0" encoding="UTF-8" standalone="no"?>
<!-- Created with Inkscape (http://www.inkscape.org/) -->
<svg
   xmlns:dc="http://purl.org/dc/elements/1.1/"
   xmlns:cc="http://web.resource.org/cc/"
   xmlns:rdf="http://www.w3.org/1999/02/22-rdf-syntax-ns#"
   xmlns:svg="http://www.w3.org/2000/svg"
   xmlns="http://www.w3.org/2000/svg"
   xmlns:xlink="http://www.w3.org/1999/xlink"
   xmlns:sodipodi="http://inkscape.sourceforge.net/DTD/sodipodi-0.dtd"
   xmlns:inkscape="http://www.inkscape.org/namespaces/inkscape"
   width="280.06"
   height="108.22"
   id="svg2"
   sodipodi:version="0.32"
   inkscape:version="0.43"
   sodipodi:docbase="/home/dvilla"
   sodipodi:docname="T568A.svg"
   version="1.0">
  <defs
     id="defs4" />
  <sodipodi:namedview
     id="base"
     pagecolor="#ffffff"
     bordercolor="#666666"
     borderopacity="1.0"
     inkscape:pageopacity="1"
     inkscape:pageshadow="2"
     inkscape:zoom="2.8"
     inkscape:cx="155.91686"
     inkscape:cy="16.352139"
     inkscape:document-units="px"
     inkscape:current-layer="layer1"
     inkscape:window-width="1142"
     inkscape:window-height="787"
     inkscape:window-x="396"
     inkscape:window-y="24" />
  <metadata
     id="metadata7">
    <rdf:RDF>
      <cc:Work
         rdf:about="">
        <dc:format>image/svg+xml</dc:format>
        <dc:type
           rdf:resource="http://purl.org/dc/dcmitype/StillImage" />
      </cc:Work>
    </rdf:RDF>
  </metadata>
  <g
     inkscape:label="Capa 1"
     inkscape:groupmode="layer"
     id="layer1">
    <rect
       inkscape:tile-cy="173.07646"
       inkscape:tile-cx="151.08152"
       inkscape:tile-h="8.1858384"
       inkscape:tile-w="91.220571"
       y="22.456011"
       x="9.2841339"
       height="7.7028852"
       width="90.737617"
       id="rect7585"
       style="fill:#00cc00;fill-opacity:1;stroke:#000000;stroke-width:0.48295325;stroke-miterlimit:4;stroke-dasharray:none;stroke-dashoffset:0;stroke-opacity:1" />
    <rect
       style="fill:#ffa400;fill-opacity:1;stroke:#000000;stroke-width:0.48295325;stroke-miterlimit:4;stroke-dasharray:none;stroke-dashoffset:0;stroke-opacity:1"
       id="rect7575"
       width="90.737617"
       height="7.7028852"
       x="9.2841339"
       y="66.80854"
       inkscape:tile-w="91.220571"
       inkscape:tile-h="8.1858384"
       inkscape:tile-cx="151.08152"
       inkscape:tile-cy="173.07646" />
    <g
       id="g7605"
       transform="translate(-96.42857,-179.9589)">
      <rect
         style="fill:#ffffff;fill-opacity:1;stroke:#000000;stroke-width:0.48295325;stroke-miterlimit:4;stroke-dasharray:none;stroke-dashoffset:0;stroke-opacity:1"
         id="rect5805"
         width="90.737617"
         height="7.7028852"
         x="105.71271"
         y="191.32678"
         inkscape:tile-w="91.220571"
         inkscape:tile-h="8.1858384"
         inkscape:tile-cx="151.08152"
         inkscape:tile-cy="173.07646" />
      <path
         style="fill:none;fill-opacity:1;fill-rule:evenodd;stroke:#00cc00;stroke-width:7.25166559;stroke-linecap:butt;stroke-linejoin:miter;stroke-miterlimit:4;stroke-dasharray:7.25166522, 7.25166522;stroke-dashoffset:0;stroke-opacity:1"
         d="M 109.47437,195.20007 L 196.61723,195.20007"
         id="path5807" />
    </g>
    <g
       id="g5775"
       inkscape:tile-w="94.771832"
       inkscape:tile-h="8.1858384"
       inkscape:tile-cx="152.85715"
       inkscape:tile-cy="173.07646"
       transform="translate(-96.42857,-135.6809)">
      <rect
         inkscape:tile-cy="173.07646"
         inkscape:tile-cx="151.08152"
         inkscape:tile-h="8.1858384"
         inkscape:tile-w="91.220571"
         y="169.22502"
         x="105.71271"
         height="7.7028852"
         width="90.737617"
         id="rect5761"
         style="fill:#ffffff;fill-opacity:1;stroke:#000000;stroke-width:0.48295325;stroke-miterlimit:4;stroke-dasharray:none;stroke-dashoffset:0;stroke-opacity:1" />
      <path
         id="path5763"
         d="M 109.47437,173.09831 L 196.61723,173.09831"
         style="fill:none;fill-opacity:1;fill-rule:evenodd;stroke:#ffa400;stroke-width:7.25166559;stroke-linecap:butt;stroke-linejoin:miter;stroke-miterlimit:4;stroke-dasharray:7.25166522, 7.25166522;stroke-dashoffset:0;stroke-opacity:1" />
    </g>
    <g
       id="g7609"
       transform="translate(-96.42857,-157.7082)">
      <rect
         style="fill:#ffffff;fill-opacity:1;stroke:#000000;stroke-width:0.48295325;stroke-miterlimit:4;stroke-dasharray:none;stroke-dashoffset:0;stroke-opacity:1"
         id="rect6686"
         width="90.737617"
         height="7.7028852"
         x="105.71271"
         y="213.42856"
         inkscape:tile-w="91.220571"
         inkscape:tile-h="8.1858384"
         inkscape:tile-cx="151.08152"
         inkscape:tile-cy="173.07646" />
      <path
         style="fill:none;fill-opacity:1;fill-rule:evenodd;stroke:#005eff;stroke-width:7.25166559;stroke-linecap:butt;stroke-linejoin:miter;stroke-miterlimit:4;stroke-dasharray:7.25166522, 7.25166522;stroke-dashoffset:0;stroke-opacity:1"
         d="M 109.47437,217.30184 L 196.61723,217.30184"
         id="path6688" />
    </g>
    <g
       id="g7613"
       transform="translate(-96.42857,-157.6336)">
      <rect
         style="fill:#ffffff;fill-opacity:1;stroke:#000000;stroke-width:0.48295325;stroke-miterlimit:4;stroke-dasharray:none;stroke-dashoffset:0;stroke-opacity:1"
         id="rect7567"
         width="90.737617"
         height="7.7028852"
         x="105.71271"
         y="235.5303"
         inkscape:tile-w="91.220571"
         inkscape:tile-h="8.1858384"
         inkscape:tile-cx="151.08152"
         inkscape:tile-cy="173.07646" />
      <path
         style="fill:none;fill-opacity:1;fill-rule:evenodd;stroke:#a16600;stroke-width:7.25166559;stroke-linecap:butt;stroke-linejoin:miter;stroke-miterlimit:4;stroke-dasharray:7.25166522, 7.25166522;stroke-dashoffset:0;stroke-opacity:1"
         d="M 109.47437,239.4036 L 196.61723,239.4036"
         id="path7569" />
    </g>
    <rect
       inkscape:tile-cy="173.07646"
       inkscape:tile-cx="151.08152"
       inkscape:tile-h="8.1858384"
       inkscape:tile-w="91.220571"
       y="44.632278"
       x="9.2841339"
       height="7.7028852"
       width="90.737617"
       id="rect7581"
       style="fill:#005eff;fill-opacity:1;stroke:#000000;stroke-width:0.48295325;stroke-miterlimit:4;stroke-dasharray:none;stroke-dashoffset:0;stroke-opacity:1" />
    <rect
       inkscape:tile-cy="173.07646"
       inkscape:tile-cx="151.08152"
       inkscape:tile-h="8.1858384"
       inkscape:tile-w="91.220571"
       y="88.984802"
       x="9.2841339"
       height="7.7028852"
       width="90.737617"
       id="rect7589"
       style="fill:#a16600;fill-opacity:1;stroke:#000000;stroke-width:0.48295325;stroke-miterlimit:4;stroke-dasharray:none;stroke-dashoffset:0;stroke-opacity:1" />
    <path
       style="fill:#defafb;fill-opacity:1;fill-rule:evenodd;stroke:#000000;stroke-width:0.96516627px;stroke-linecap:butt;stroke-linejoin:miter;stroke-opacity:1"
       d="M 268.78572,82.217841 L 268.78572,24.827957 L 205.92857,24.827957 L 205.92857,43.126181 L 134.5,43.126181 L 134.5,65.084051 L 205.92857,65.084051 L 205.92857,82.217841 L 268.78572,82.217841 z "
       id="path2247"
       sodipodi:nodetypes="ccccccccc" />
    <rect
       style="opacity:0.67088611;fill:#e8fff9;fill-opacity:1;fill-rule:evenodd;stroke:#000000;stroke-width:1px;stroke-linecap:butt;stroke-linejoin:miter;stroke-opacity:1"
       id="rect1350"
       width="164.28572"
       height="90.714287"
       x="98.571426"
       y="8.0764675" />
    <rect
       style="fill:none;fill-opacity:1;stroke:#000000;stroke-opacity:1"
       id="rect1352"
       width="25.995037"
       height="66.693657"
       x="115.21679"
       y="20.265356" />
    <text
       xml:space="preserve"
       style="font-size:8.86438179px;font-style:normal;font-weight:normal;fill:#000000;fill-opacity:1;stroke:none;stroke-width:1px;stroke-linecap:butt;stroke-linejoin:miter;stroke-opacity:1;font-family:Bitstream Vera Sans"
       x="101.93882"
       y="17.933432"
       id="text2227"><tspan
         sodipodi:role="line"
         id="tspan2229"
         x="101.93882"
         y="17.933432">1</tspan><tspan
         sodipodi:role="line"
         x="101.93882"
         y="29.013909"
         id="tspan2231">2</tspan><tspan
         sodipodi:role="line"
         x="101.93882"
         y="40.094386"
         id="tspan2233">3</tspan><tspan
         sodipodi:role="line"
         x="101.93882"
         y="51.174863"
         id="tspan2235">4</tspan><tspan
         sodipodi:role="line"
         x="101.93882"
         y="62.255341"
         id="tspan2237">5</tspan><tspan
         sodipodi:role="line"
         x="101.93882"
         y="73.335818"
         id="tspan2239">6</tspan><tspan
         sodipodi:role="line"
         x="101.93882"
         y="84.416295"
         id="tspan2241">7</tspan><tspan
         sodipodi:role="line"
         x="101.93882"
         y="95.496772"
         id="tspan2243">8</tspan></text>
    <path
       style="fill:none;fill-opacity:0.75;fill-rule:evenodd;stroke:#000000;stroke-width:1px;stroke-linecap:butt;stroke-linejoin:miter;stroke-opacity:1"
       d="M 152.85714,8.0764674 L 152.85714,98.433611"
       id="path2245" />
    <g
       id="g2254"
       transform="matrix(1,0,0,1.01113,-96.42857,-159.8547)">
      <rect
         inkscape:tile-cy="180.57647"
         inkscape:tile-cx="353.21427"
         inkscape:tile-h="2.3079641"
         inkscape:tile-w="14.410714"
         y="179.53334"
         x="346.07141"
         height="3.8719637"
         width="14.285714"
         id="rect1363"
         style="fill:#ffdd23;fill-opacity:1;fill-rule:evenodd;stroke:#000000;stroke-width:0.10975477;stroke-linecap:butt;stroke-linejoin:miter;stroke-miterlimit:4;stroke-dasharray:none;stroke-opacity:1" />
      <use
         height="1052.3622"
         width="744.09448"
         id="use2238"
         xlink:href="#rect1363"
         inkscape:tiled-clone-of="#rect1363"
         y="0"
         x="0" />
      <use
         height="1052.3622"
         width="744.09448"
         id="use2240"
         transform="translate(0,8.596726)"
         xlink:href="#rect1363"
         inkscape:tiled-clone-of="#rect1363"
         y="0"
         x="0" />
      <use
         height="1052.3622"
         width="744.09448"
         id="use2242"
         transform="translate(0,17.19345)"
         xlink:href="#rect1363"
         inkscape:tiled-clone-of="#rect1363"
         y="0"
         x="0" />
      <use
         height="1052.3622"
         width="744.09448"
         id="use2244"
         transform="translate(0,25.79017)"
         xlink:href="#rect1363"
         inkscape:tiled-clone-of="#rect1363"
         y="0"
         x="0" />
      <use
         height="1052.3622"
         width="744.09448"
         id="use2246"
         transform="translate(0,34.3869)"
         xlink:href="#rect1363"
         inkscape:tiled-clone-of="#rect1363"
         y="0"
         x="0" />
      <use
         height="1052.3622"
         width="744.09448"
         id="use2248"
         transform="translate(0,42.98362)"
         xlink:href="#rect1363"
         inkscape:tiled-clone-of="#rect1363"
         y="0"
         x="0" />
      <use
         height="1052.3622"
         width="744.09448"
         id="use2250"
         transform="translate(0,51.58035)"
         xlink:href="#rect1363"
         inkscape:tiled-clone-of="#rect1363"
         y="0"
         x="0" />
      <use
         height="1052.3622"
         width="744.09448"
         id="use2252"
         transform="translate(0,60.17707)"
         xlink:href="#rect1363"
         inkscape:tiled-clone-of="#rect1363"
         y="0"
         x="0" />
    </g>
  </g>
</svg>
